<?xml version="1.0" encoding="utf-8"?>
<!-- Generator: Adobe Illustrator 16.0.0, SVG Export Plug-In . SVG Version: 6.00 Build 0)  -->
<!DOCTYPE svg PUBLIC "-//W3C//DTD SVG 1.1//EN" "http://www.w3.org/Graphics/SVG/1.1/DTD/svg11.dtd">
<svg version="1.1" id="Layer_1" xmlns="http://www.w3.org/2000/svg" xmlns:xlink="http://www.w3.org/1999/xlink" x="0px" y="0px"
	 width="250px" height="250px" viewBox="0 0 250 250" enable-background="new 0 0 250 250" xml:space="preserve">
<path fill="#D4AF34" d="M170.667,162.375v47.729c0,5.573-4.534,10.107-10.107,10.107H75.031c-5.573,0-10.107-4.534-10.107-10.107
	V41.771c0-5.573,4.534-10.107,10.107-10.107h85.528c5.573,0,10.107,4.534,10.107,10.107v45.104h2V41.771
	c0-6.676-5.432-12.107-12.107-12.107H75.031c-6.676,0-12.107,5.431-12.107,12.107v168.333c0,6.676,5.432,12.107,12.107,12.107
	h85.528c6.676,0,12.107-5.432,12.107-12.107v-47.729H170.667z"/>
<line fill="none" stroke="#D4AF34" stroke-width="2" stroke-miterlimit="10" x1="63.924" y1="50.75" x2="171.667" y2="50.75"/>
<g>
	
		<line fill="none" stroke="#4C79CB" stroke-width="2" stroke-linecap="round" stroke-linejoin="round" stroke-miterlimit="10" x1="113" y1="111.362" x2="145" y2="111.362"/>
	
		<line fill="none" stroke="#4C79CB" stroke-width="2" stroke-linecap="round" stroke-linejoin="round" stroke-miterlimit="10" x1="97" y1="125.029" x2="129" y2="125.029"/>
	
		<line fill="none" stroke="#4C79CB" stroke-width="2" stroke-linecap="round" stroke-linejoin="round" stroke-miterlimit="10" x1="104.833" y1="138.695" x2="136.833" y2="138.695"/>
</g>
<line fill="none" stroke="#D4AF34" stroke-width="2" stroke-miterlimit="10" x1="63.924" y1="200.75" x2="171.667" y2="200.75"/>
<line fill="none" stroke="#D4AF34" stroke-width="2" stroke-miterlimit="10" x1="63.984" y1="201.75" x2="171.728" y2="201.75"/>
<line fill="none" stroke="#D4AF34" stroke-width="2" stroke-linecap="round" stroke-linejoin="round" stroke-miterlimit="10" x1="106.939" y1="210.75" x2="128.772" y2="210.75"/>
<circle fill="none" stroke="#4C79CB" stroke-width="2" stroke-miterlimit="10" cx="171.667" cy="125.029" r="24.471"/>
<g>
	<path fill="#4C79CB" d="M170.378,137.969v-3.144c-1.806-0.031-3.673-0.592-4.763-1.37l0.747-2.085
		c1.12,0.747,2.739,1.338,4.482,1.338c2.21,0,3.704-1.276,3.704-3.05c0-1.713-1.214-2.771-3.518-3.705
		c-3.175-1.244-5.136-2.677-5.136-5.385c0-2.583,1.836-4.544,4.7-5.012v-3.144h1.93v3.02c1.868,0.062,3.145,0.56,4.047,1.089
		l-0.778,2.054c-0.653-0.374-1.93-1.058-3.922-1.058c-2.397,0-3.3,1.432-3.3,2.677c0,1.619,1.151,2.428,3.859,3.548
		c3.207,1.308,4.825,2.927,4.825,5.696c0,2.46-1.712,4.763-4.918,5.292v3.237H170.378z"/>
</g>
</svg>
